Lab1 • DBSStats2SemesterProject
…
subjects <- rep(1:10, each = 50)
room <- rep(c("Noisy","Quiet"), each = 50*5)
words <- rep(1:50, 10)
correct <- rbinom(500, 1, 0.5)

recall_data <- tibble(subjects,
                      room,
                      words,
                      correct)

recall_data
# # A tibble: 500 x 4
#    subjects room  words correct
#       <int> <chr> <int>   <int>
#  1        1 Noisy     1       0
#  2        1 Noisy     2       1
#  3        1 Noisy     3       0
#  4        1 Noisy     4       0
#  5        1 Noisy     5       0
#  6        1 Noisy     6       0
#  7        1 Noisy     7       1
#  8        1 Noisy     8       1
#  9        1 Noisy     9       1
# 10        1 Noisy    10       1
# # ... with 490 more rows
…
Linear regression

people <- tibble(height = rnorm(100, 90, 10),
                 day = sample(1:31, 100, replace = TRUE))
people
# # A tibble: 100 x 2
#    height   day
#     <dbl> <int>
#  1   86.4    29
#  2   92.5    10
#  3   93.3    25
#  4  105.     23
#  5   71.9    23
#  6   98.9    22
#  7   94.6     4
#  8   81.2    16
#  9   93.0    22
# 10   98.6    18
# # ... with 90 more rows
…
This is plain text.

weight_data <- tibble(subject_number = rep(1:25, each = 5*7),
                      day = rep(rep(c("S", "M", "T", "W", "Th", "F", "Sa"),
                                    each = 5), 25),
                      measurement_number = rep(1:5, 7*25),
                      weights = rnorm(25*5*7, 100, 25))

subject_means <- weight_data %>%
  group_by(subject_number, day) %>%
  summarize(mean_weight = mean(weights), .groups = "drop")

subject_means
# # A tibble: 175 x 3
#    subject_number day   mean_weight
#             <int> <chr>       <dbl>
#  1              1 F            89.6
#  2              1 M            85.9
#  3              1 S            81.0
#  4              1 Sa          122. 
#  5              1 T            83.3
#  6              1 Th           89.4
#  7              1 W           113. 
#  8              2 F           108. 
#  9              2 M           129. 
# 10              2 S           109. 
# # ... with 165 more rows

aov.out <- aov(mean_weight ~ day, data = subject_means)
summary(aov.out)
#              Df Sum Sq Mean Sq F value Pr(>F)
# day           6    797   132.8   1.052  0.394
# Residuals   168  21206   126.2

Regression and ANOVA are run similarly

subject_means <- weight_data %>%
  group_by(subject_number, day) %>%
  summarize(mean_weight = mean(weights), .groups="drop")

subject_means
# # A tibble: 175 x 3
#    subject_number day   mean_weight
#             <int> <chr>       <dbl>
#  1              1 F            89.6
#  2              1 M            85.9
#  3              1 S            81.0
#  4              1 Sa          122. 
#  5              1 T            83.3
#  6              1 Th           89.4
#  7              1 W           113. 
#  8              2 F           108. 
#  9              2 M           129. 
# 10              2 S           109. 
# # ... with 165 more rows
…
Factorial ANOVA

weight_data <- tibble(subject_number = rep(1:25, each = 4*7),
                      day = rep(rep(c("S","M","T","W","Th","F","Sa"),
                                    each = 4), 25),
                      time_of_day = rep(c("Morning", "Morning", "Evening", "Evening"), 7*25),
                      measurement_number = rep(rep(1:2, 2), 7*25),
                      weights = rnorm(25*4*7, 100, 25))

subject_means <- weight_data %>%
  group_by(subject_number, day, time_of_day) %>%
  summarize(mean_weight = mean(weights), .groups = "drop")

subject_means
# # A tibble: 350 x 4
#    subject_number day   time_of_day mean_weight
#             <int> <chr> <chr>             <dbl>
#  1              1 F     Evening           111. 
#  2              1 F     Morning           133. 
#  3              1 M     Evening            74.2
#  4              1 M     Morning            71.6
#  5              1 S     Evening            92.5
#  6              1 S     Morning            68.1
#  7              1 Sa    Evening            84.2
#  8              1 Sa    Morning           110. 
#  9              1 T     Evening           111. 
# 10              1 T     Morning           114. 
# # ... with 340 more rows
…
Switching from Factorial ANOVA to multiple regression

subject_means <- weight_data %>% 
  group_by(subject_number, day, time_of_day) %>%
  summarize(mean_weight = mean(weights), .groups = "drop")

subject_means$day <- as.factor(subject_means$day)
subject_means$time_of_day <- as.factor(subject_means$time_of_day)

subject_means
# # A tibble: 350 x 4
#    subject_number day   time_of_day mean_weight
#             <int> <fct> <fct>             <dbl>
#  1              1 F     Evening           111. 
#  2              1 F     Morning           133. 
#  3              1 M     Evening            74.2
#  4              1 M     Morning            71.6
#  5              1 S     Evening            92.5
#  6              1 S     Morning            68.1
#  7              1 Sa    Evening            84.2
#  8              1 Sa    Morning           110. 
#  9              1 T     Evening           111. 
# 10              1 T     Morning           114. 
# # ... with 340 more rows
…
