R Basics • DBSStats2SemesterProject
…
Advanced problem of choice: Problem 3 - Testing the Random Number Generator

freq <- runif(5000000, 0, 101)
frequencies <- tabulate(freq)
frequency_table <- tibble(Values = 1:100,
                          Frequencies = frequencies)
frequency_table
#> # A tibble: 100 x 2
#>    Values Frequencies
#>     <int>       <int>
#>  1      1       49297
#>  2      2       49569
#>  3      3       49766
#>  4      4       49719
#>  5      5       49147
#>  6      6       49155
#>  7      7       49493
#>  8      8       49413
#>  9      9       49486
#> 10     10       49318
#> # ... with 90 more rows
…
